testcase/asic_top.vcd
$date
	Thu Nov 16 22:02:00 2023
$end

$version
	Synopsys VCS version R-2020.12_Full64
$end

$timescale
	1ps
$end

$comment Csum: 1 37edbba936b5a537 $end


$scope module asic_system $end

$scope module u0_asic_top $end
$var wire 1 ! osc_in $end
$var wire 1 " sys_rst $end
$var wire 1 # uart_rx $end
$var wire 1 $ chiplink_rx_clk $end
$var wire 1 % chiplink_rx_rst $end
$var wire 1 & chiplink_rx_send $end
$var wire 1 ' interrupt $end
$var wire 1 ( spi_miso $end
$var wire 32 ) chiplink_rx_data [31:0] $end
$var wire 1 * clk4div_out $end
$var wire 1 + osc_out $end
$var wire 1 , spi_flash_clk $end
$var wire 1 - spi_mosi $end
$var wire 1 . uart_tx $end
$var wire 1 / chiplink_tx_clk $end
$var wire 1 0 chiplink_tx_rst $end
$var wire 1 1 chiplink_tx_send $end
$var wire 2 2 spi_flash_cs [1:0] $end
$var wire 32 3 chiplink_tx_data [31:0] $end
$upscope $end

$upscope $end

$enddefinitions $end

#0
$dumpvars
bxxxxxxxxxxxxxxxxxxxxxxxxxxxxxxxx 3
0!
0$
0/
10
x1
1#
bxxxxxxxxxxxxxxxxxxxxxxxxxxxxxxxx )
0'
b11 2
0"
0,
0-
x(
1.
1%
x&
0*
1+
$end
#2
0&
b01010101010111000000111110101010 )
#20000
1!
0+
1/
1$
01
b11111111111111111111111011111111 )
#40000
0!
1+
0/
0$
#60000
1!
0+
1/
1$
b10011000010011011010011000110000 )
#80000
0!
1+
0/
0$
#100000
1!
0+
1/
1$
b00000000000000000000000000000000 )
b00000000000000000000000000000000 3
#120000
0!
1+
0/
0$
#140000
1!
0+
1/
1$
#160000
0!
1+
0/
0$
#180000
1!
0+
1/
1$
#200000
0!
1+
0/
0$
#220000
1!
0+
1/
1$
#240000
0!
1+
0/
0$
1"
#260000
1!
0+
1/
1$
0%
#280000
0!
1+
0/
0$
#300000
1!
0+
1/
1$
#320000
0!
1+
0/
0$
#340000
1!
0+
1/
1$
00
1&
b00000000000000000000000000000101 )
#360000
0!
1+
0/
0$
#380000
1!
0+
1/
1$
1*
#400000
0!
1+
0/
0$
#420000
1!
0+
1/
1$
11
b00000000000000000000000000000101 3
#440000
0!
1+
0/
0$
#460000
1!
0+
1/
1$
0*
#480000
0!
1+
0/
0$
#500000
1!
0+
1/
1$
#520000
0!
1+
0/
0$
#540000
1!
0+
1/
1$
1*
#560000
0!
1+
0/
0$
#580000
1!
0+
1/
1$
#600000
0!
1+
0/
0$
#620000
1!
0+
1/
1$
0*
#640000
0!
1+
0/
0$
#660000
1!
0+
1/
1$
#680000
0!
1+
0/
0$
#700000
1!
0+
1/
1$
1*
#720000
0!
1+
0/
0$
#740000
1!
0+
1/
1$
#760000
0!
1+
0/
0$
#780000
1!
0+
1/
1$
0*
#800000
0!
1+
0/
0$
#820000
1!
0+
1/
1$
#840000
0!
1+
0/
0$
#860000
1!
0+
1/
1$
1*
#880000
0!
1+
0/
0$
#900000
1!
0+
1/
1$
#920000
0!
1+
0/
0$
#940000
1!
0+
1/
1$
0*
#960000
0!
1+
0/
0$
#980000
1!
0+
1/
1$
#1000000
0!
1+
0/
0$
#1020000
1!
0+
1/
1$
1*
b00110001100011000110001100000101 3
#1040000
0!
1+
0/
0$
#1060000
1!
0+
1/
1$
b00000000000000000000000000000101 3
b10 2
#1080000
0!
1+
0/
0$
#1100000
1!
0+
1/
1$
1,
0*
b01100011000110001100011000000101 )
#1120000
0!
1+
0/
0$
#1140000
1!
0+
1/
1$
0,
b00000000000000000000000000000101 )
#1160000
0!
1+
0/
0$
#1180000
1!
0+
1/
1$
1,
1*
#1200000
0!
1+
0/
0$
#1220000
1!
0+
1/
1$
0,
#1240000
0!
1+
0/
0$
#1260000
1!
0+
1/
1$
1,
0*
#1280000
0!
1+
0/
0$
#1300000
1!
0+
1/
1$
0,
#1320000
0!
1+
0/
0$
#1340000
1!
0+
1/
1$
1,
1*
#1360000
0!
1+
0/
0$
#1380000
1!
0+
1/
1$
0,
#1400000
0!
1+
0/
0$
#1420000
1!
0+
1/
1$
1,
0*
#1440000
0!
1+
0/
0$
#1460000
1!
0+
1/
1$
0,
#1480000
0!
1+
0/
0$
#1500000
1!
0+
1/
1$
1,
1*
#1520000
0!
1+
0/
0$
#1540000
1!
0+
1/
1$
0,
1-
#1560000
0!
1+
0/
0$
#1580000
1!
0+
1/
1$
1,
0*
#1600000
0!
1+
0/
0$
#1620000
1!
0+
1/
1$
0,
#1640000
0!
1+
0/
0$
#1660000
1!
0+
1/
1$
1,
1*
#1680000
0!
1+
0/
0$
#1700000
1!
0+
1/
1$
0,
0-
#1720000
0!
1+
0/
0$
#1740000
1!
0+
1/
1$
1,
0*
#1760000
0!
1+
0/
0$
#1780000
1!
0+
1/
1$
0,
#1800000
0!
1+
0/
0$
#1820000
1!
0+
1/
1$
1,
1*
#1840000
0!
1+
0/
0$
#1860000
1!
0+
1/
1$
0,
#1880000
0!
1+
0/
0$
#1900000
1!
0+
1/
1$
1,
0*
#1920000
0!
1+
0/
0$
#1940000
1!
0+
1/
1$
0,
#1960000
0!
1+
0/
0$
#1980000
1!
0+
1/
1$
1,
1*
#2000000
0!
1+
0/
0$
#2020000
1!
0+
1/
1$
0,
#2040000
0!
1+
0/
0$
#2060000
1!
0+
1/
1$
1,
0*
#2080000
0!
1+
0/
0$
#2100000
1!
0+
1/
1$
0,
#2120000
0!
1+
0/
0$
#2140000
1!
0+
1/
1$
1,
1*
#2160000
0!
1+
0/
0$
#2180000
1!
0+
1/
1$
0,
#2200000
0!
1+
0/
0$
#2220000
1!
0+
1/
1$
1,
0*
#2240000
0!
1+
0/
0$
#2260000
1!
0+
1/
1$
0,
#2280000
0!
1+
0/
0$
#2300000
1!
0+
1/
1$
1,
1*
#2320000
0!
1+
0/
0$
#2340000
1!
0+
1/
1$
0,
#2360000
0!
1+
0/
0$
#2380000
1!
0+
1/
1$
1,
0*
#2400000
0!
1+
0/
0$
#2420000
1!
0+
1/
1$
0,
#2440000
0!
1+
0/
0$
#2460000
1!
0+
1/
1$
1,
1*
#2480000
0!
1+
0/
0$
#2500000
1!
0+
1/
1$
0,
#2520000
0!
1+
0/
0$
#2540000
1!
0+
1/
1$
1,
0*
#2560000
0!
1+
0/
0$
#2580000
1!
0+
1/
1$
0,
#2600000
0!
1+
0/
0$
#2620000
1!
0+
1/
1$
1,
1*
#2640000
0!
1+
0/
0$
#2660000
1!
0+
1/
1$
0,
#2680000
0!
1+
0/
0$
#2700000
1!
0+
1/
1$
1,
0*
#2720000
0!
1+
0/
0$
#2740000
1!
0+
1/
1$
0,
#2760000
0!
1+
0/
0$
#2780000
1!
0+
1/
1$
1,
1*
#2800000
0!
1+
0/
0$
#2820000
1!
0+
1/
1$
0,
#2840000
0!
1+
0/
0$
#2860000
1!
0+
1/
1$
1,
0*
#2880000
0!
1+
0/
0$
#2900000
1!
0+
1/
1$
0,
#2920000
0!
1+
0/
0$
#2940000
1!
0+
1/
1$
1,
1*
#2960000
0!
1+
0/
0$
#2980000
1!
0+
1/
1$
0,
#3000000
0!
1+
0/
0$
#3020000
1!
0+
1/
1$
1,
0*
#3040000
0!
1+
0/
0$
#3060000
1!
0+
1/
1$
0,
#3080000
0!
1+
0/
0$
#3100000
1!
0+
1/
1$
1,
1*
#3120000
0!
1+
0/
0$
#3140000
1!
0+
1/
1$
0,
#3160000
0!
1+
0/
0$
#3180000
1!
0+
1/
1$
1,
0*
#3200000
0!
1+
0/
0$
#3220000
1!
0+
1/
1$
0,
#3240000
0!
1+
0/
0$
#3260000
1!
0+
1/
1$
1,
1*
#3280000
0!
1+
0/
0$
#3300000
1!
0+
1/
1$
0,
#3320000
0!
1+
0/
0$
#3340000
1!
0+
1/
1$
1,
0*
#3360000
0!
1+
0/
0$
#3380000
1!
0+
1/
1$
0,
#3400000
0!
1+
0/
0$
#3420000
1!
0+
1/
1$
1,
1*
#3440000
0!
1+
0/
0$
#3460000
1!
0+
1/
1$
0,
#3480000
0!
1+
0/
0$
#3500000
1!
0+
1/
1$
1,
0*
#3520000
0!
1+
0/
0$
#3540000
1!
0+
1/
1$
0,
#3560000
0!
1+
0/
0$
#3580000
1!
0+
1/
1$
1,
1*
#3600000
0!
1+
0/
0$
#3620000
1!
0+
1/
1$
0,
#3623000
0(
#3640000
0!
1+
0/
0$
#3660000
1!
0+
1/
1$
1,
0*
#3680000
0!
1+
0/
0$
#3700000
1!
0+
1/
1$
0,
#3720000
0!
1+
0/
0$
#3740000
1!
0+
1/
1$
1,
1*
#3760000
0!
1+
0/
0$
#3780000
1!
0+
1/
1$
0,
#3800000
0!
1+
0/
0$
#3820000
1!
0+
1/
1$
1,
0*
#3840000
0!
1+
0/
0$
#3860000
1!
0+
1/
1$
0,
#3863000
1(
#3880000
0!
1+
0/
0$
#3900000
1!
0+
1/
1$
1,
1*
#3920000
0!
1+
0/
0$
#3940000
1!
0+
1/
1$
0,
#3943000
0(
#3960000
0!
1+
0/
0$
#3980000
1!
0+
1/
1$
1,
0*
#4000000
0!
1+
0/
0$
#4020000
1!
0+
1/
1$
0,
#4040000
0!
1+
0/
0$
#4060000
1!
0+
1/
1$
1,
1*
#4080000
0!
1+
0/
0$
#4100000
1!
0+
1/
1$
0,
#4103000
1(
#4120000
0!
1+
0/
0$
#4140000
1!
0+
1/
1$
1,
0*
#4160000
0!
1+
0/
0$
#4180000
1!
0+
1/
1$
0,
#4200000
0!
1+
0/
0$
#4220000
1!
0+
1/
1$
1,
1*
